{
com.badlogic.gdx.graphics.Color: {
    default:          { a: 1.000, b: 1.000, g: 1.000, r: 1.000 },
    white:            { a: 1.000, b: 0.870, g: 0.870, r: 0.870 },
	green:            { a: 1.000, b: 0.000, g: 0.800, r: 0.000 },
	blue:             { a: 1.000, b: 1.000, g: 0.478, r: 0.000 },
	purple:           { a: 1.000, b: 1.000, g: 0.200, r: 0.678 },
	red:              { a: 1.000, b: 0.066, g: 0.066, r: 0.878 },
	black:            { a: 1.000, b: 0.000, g: 0.000, r: 0.000 },
	dark-brown:       { a: 1.000, b: 0.098, g: 0.149, r: 0.196 },
	gold:             { a: 1.000, b: 0.015, g: 0.847, r: 0.956 },
	light-grey:       { a: 1.000, b: 0.556, g: 0.556, r: 0.556 },
	grey:             { a: 1.000, b: 0.378, g: 0.378, r: 0.378 },
	bluish-grey:      { a: 0.850, b: 0.176, g: 0.137, r: 0.098 },
	dark-grey:        { a: 1.000, b: 0.525, g: 0.525, r: 0.525 },
	blackish:         { a: 1.000, b: 0.125, g: 0.125, r: 0.125 },
},
com.badlogic.gdx.scenes.scene2d.ui.Button$ButtonStyle: {
	default: { down: menu-btn-down, up: menu-btn-up, checked: menu-btn-down }
},
}
